<svg width="20" height="20" viewBox="0 0 20 20" fill="none" xmlns="http://www.w3.org/2000/svg" xmlns:xlink="http://www.w3.org/1999/xlink">
<path d="M0 0H20V20H0V0Z" fill="url(#pattern0)"/>
<defs>
<pattern id="pattern0" patternContentUnits="objectBoundingBox" width="1" height="1">
<use xlink:href="#image0_542:2389" transform="scale(0.05)"/>
</pattern>
<image id="image0_542:2389" width="20" height="20"  xlink:href="data:image/png;base64,iVBORw0KGgoAAAANSUhEUgAAABQAAAAUCAYAAACNiR0NAAAAAXNSR0IArs4c6QAAAIRJREFUOE+9lEEOgDAIBK1X+P9POWs4kBAtshBij007zJaGdTSXiFxEtJ7XXxsIX2F6bgSoMF3MfO6KlwwzmBaAgV8xvSkERMwMmgJRMwhYMUuBHVjYlGrMtCnjQK04GtkidKD/fpuOaWroodGESbscjTDkTWFDNH4ZaF9qbMB6093EvgGqK3gVL+NUmwAAAABJRU5ErkJggg=="/>
</defs>
</svg>
