<svg width="25" height="25" viewBox="0 0 25 25" fill="none" xmlns="http://www.w3.org/2000/svg">
<path d="M18.0897 15.6228H16.9957L16.6079 15.2489C17.965 13.6702 18.7821 11.6206 18.7821 9.39105C18.7821 4.41951 14.7522 0.389648 9.7807 0.389648C4.80915 0.389648 0.779297 4.41951 0.779297 9.39105C0.779297 14.3626 4.80915 18.3924 9.7807 18.3924C12.0103 18.3924 14.0598 17.5754 15.6385 16.2183L16.0124 16.606V17.7L22.9366 24.6103L25 22.5469L18.0897 15.6228ZM9.7807 15.6228C6.33247 15.6228 3.54896 12.8393 3.54896 9.39105C3.54896 5.94282 6.33247 3.15931 9.7807 3.15931C13.2289 3.15931 16.0124 5.94282 16.0124 9.39105C16.0124 12.8393 13.2289 15.6228 9.7807 15.6228Z" fill="white"/>
</svg>
