<svg width="13" height="19" viewBox="0 0 13 19" fill="none" xmlns="http://www.w3.org/2000/svg">
<g clip-path="url(#clip0)">
<path d="M8.33824 18.6297V10.2538H11.8181L12.3402 6.98828H8.33955V4.90347C8.33955 3.95936 8.66222 3.31556 10.3412 3.31556H12.4805V0.393579C12.1107 0.354691 10.8409 0.266113 9.36267 0.266113C6.27626 0.266113 4.16444 1.78705 4.16444 4.58049V6.98936H0.675354V10.2538H4.16444V18.6297H8.33824Z" fill="white"/>
</g>
<defs>
<clipPath id="clip0">
<rect width="11.8052" height="18.3636" fill="white" transform="translate(0.675354 0.266113)"/>
</clipPath>
</defs>
</svg>
