<svg width="38" height="25" viewBox="0 0 38 25" fill="none" xmlns="http://www.w3.org/2000/svg">
<g clip-path="url(#clip0)">
<path opacity="0.07" d="M35 0.895996H3C1.3 0.895996 0 2.196 0 3.896V21.896C0 23.596 1.4 24.896 3 24.896H35C36.7 24.896 38 23.596 38 21.896V3.896C38 2.196 36.6 0.895996 35 0.895996Z" fill="white"/>
<path d="M35 1.896C36.1 1.896 37 2.796 37 3.896V21.896C37 22.996 36.1 23.896 35 23.896H3C1.9 23.896 1 22.996 1 21.896V3.896C1 2.796 1.9 1.896 3 1.896H35Z" fill="#5A31F4"/>
<path d="M21.382 10.609C21.382 12.277 20.205 13.467 18.561 13.467H17.012C16.9864 13.4674 16.9615 13.4752 16.9402 13.4894C16.9189 13.5036 16.9022 13.5236 16.892 13.547C16.8855 13.5626 16.8821 13.5792 16.882 13.596V15.788C16.882 15.8051 16.8786 15.8219 16.8721 15.8376C16.8656 15.8534 16.856 15.8676 16.8439 15.8796C16.8318 15.8916 16.8175 15.9011 16.8017 15.9075C16.7859 15.9139 16.769 15.9172 16.752 15.917H15.668C15.6335 15.917 15.6005 15.9034 15.5761 15.879C15.5517 15.8546 15.538 15.8215 15.538 15.787V7.88205C15.5376 7.85629 15.545 7.83102 15.5593 7.80959C15.5736 7.78816 15.5941 7.77158 15.618 7.76205C15.6338 7.75542 15.6508 7.75202 15.668 7.75205H18.568C20.205 7.75205 21.382 8.94205 21.382 10.61V10.609ZM20.03 10.609C20.03 9.65105 19.372 8.95105 18.48 8.95105H17.012C16.9949 8.95105 16.978 8.95441 16.9623 8.96094C16.9465 8.96748 16.9322 8.97705 16.9201 8.98912C16.908 9.0012 16.8984 9.01553 16.8919 9.0313C16.8854 9.04707 16.882 9.06398 16.882 9.08105V12.131C16.8818 12.1482 16.8851 12.1651 16.8916 12.1809C16.8982 12.1967 16.9078 12.2111 16.92 12.223C16.9321 12.2352 16.9464 12.2448 16.9622 12.2513C16.978 12.2578 16.9949 12.2611 17.012 12.261H18.48C19.372 12.266 20.03 11.566 20.03 10.609ZM21.704 14.4C21.6926 14.1439 21.7459 13.8889 21.859 13.6587C21.972 13.4286 22.1413 13.2306 22.351 13.083C22.774 12.767 23.435 12.603 24.406 12.569L25.439 12.533V12.23C25.439 11.623 25.029 11.367 24.371 11.367C23.713 11.367 23.296 11.598 23.201 11.977C23.1929 12.0037 23.1763 12.0269 23.1537 12.0432C23.1311 12.0594 23.1038 12.0678 23.076 12.067H22.054C22.0259 12.0674 21.9984 12.0586 21.9757 12.042C21.953 12.0255 21.9362 12.002 21.928 11.975C21.9226 11.9572 21.9212 11.9385 21.924 11.92C22.076 11.022 22.828 10.34 24.418 10.34C26.11 10.34 26.721 11.123 26.721 12.616V15.788C26.7209 15.8052 26.7174 15.8222 26.7106 15.838C26.7039 15.8537 26.6941 15.868 26.6819 15.88C26.6696 15.892 26.6551 15.9015 26.6391 15.9078C26.6232 15.9142 26.6062 15.9173 26.589 15.917H25.559C25.5245 15.917 25.4915 15.9034 25.4671 15.879C25.4427 15.8546 25.429 15.8215 25.429 15.787V15.551C25.4293 15.5315 25.4237 15.5123 25.4128 15.496C25.4019 15.4797 25.3862 15.4672 25.368 15.46C25.35 15.4529 25.3302 15.4512 25.3112 15.4551C25.2922 15.4591 25.2748 15.4684 25.261 15.482C24.951 15.816 24.453 16.057 23.654 16.057C22.479 16.057 21.704 15.45 21.704 14.4ZM25.439 13.713V13.467L24.1 13.537C23.395 13.573 22.985 13.863 22.985 14.353C22.985 14.797 23.361 15.043 24.019 15.043C24.912 15.043 25.439 14.563 25.439 13.713ZM27.755 18.313V17.394C27.7553 17.3748 27.7598 17.3558 27.7683 17.3385C27.7767 17.3212 27.7889 17.306 27.804 17.294C27.819 17.282 27.8364 17.2733 27.855 17.2686C27.8737 17.2639 27.8931 17.2634 27.912 17.267C28.07 17.296 28.23 17.311 28.391 17.311C28.6668 17.3262 28.9396 17.2479 29.1655 17.089C29.3913 16.9301 29.5571 16.6997 29.636 16.435L29.703 16.224C29.713 16.1956 29.713 16.1645 29.703 16.136L27.558 10.665C27.5456 10.635 27.5448 10.6014 27.556 10.5709C27.5671 10.5403 27.5892 10.5151 27.618 10.5C27.6371 10.49 27.6584 10.4848 27.68 10.485H28.72C28.7467 10.4851 28.7727 10.4933 28.7947 10.5085C28.8167 10.5236 28.8335 10.5451 28.843 10.57L30.299 14.429C30.308 14.455 30.3249 14.4774 30.3473 14.4932C30.3698 14.509 30.3966 14.5173 30.424 14.517C30.4514 14.517 30.478 14.5085 30.5004 14.4928C30.5228 14.4771 30.5398 14.4548 30.549 14.429L31.814 10.581C31.8226 10.5545 31.8395 10.5314 31.8622 10.5152C31.8848 10.499 31.9121 10.4906 31.94 10.491H33.016C33.0483 10.4912 33.0794 10.5031 33.1037 10.5244C33.1279 10.5457 33.1437 10.5751 33.148 10.607C33.1504 10.6284 33.1477 10.65 33.14 10.67L30.845 16.746C30.317 18.159 29.412 18.519 28.415 18.519C28.2258 18.5243 28.0368 18.502 27.854 18.453C27.8234 18.4455 27.7964 18.4273 27.7781 18.4016C27.7597 18.3759 27.7512 18.3445 27.754 18.313H27.755ZM8.57001 7.29605C7.20551 7.28585 5.88843 7.79616 4.88701 8.72305C4.8444 8.7618 4.8178 8.81508 4.81244 8.87243C4.80707 8.92978 4.82333 8.98706 4.85801 9.03305L5.47601 9.87205C5.49604 9.90034 5.52205 9.92387 5.55219 9.94097C5.58234 9.95808 5.61588 9.96833 5.65044 9.971C5.685 9.97367 5.71972 9.9687 5.75214 9.95644C5.78456 9.94418 5.81387 9.92492 5.83801 9.90005C6.19793 9.54264 6.62538 9.26044 7.09545 9.06987C7.56552 8.8793 8.06882 8.78418 8.57601 8.79005C10.696 8.79005 11.803 10.374 11.803 11.94C11.803 13.64 10.64 14.838 8.96801 14.861C7.67601 14.861 6.70201 14.011 6.70201 12.887C6.70312 12.6028 6.76771 12.3224 6.89107 12.0664C7.01443 11.8103 7.19344 11.5851 7.41501 11.407C7.46219 11.3683 7.49214 11.3126 7.49832 11.2519C7.5045 11.1911 7.48642 11.1305 7.44801 11.083L6.79801 10.268C6.77839 10.243 6.7539 10.2222 6.72601 10.2068C6.69813 10.1915 6.66743 10.1819 6.63576 10.1787C6.60409 10.1756 6.57211 10.1788 6.54174 10.1883C6.51136 10.1978 6.48322 10.2134 6.45901 10.234C6.06091 10.5534 5.73909 10.9575 5.51701 11.417C5.29573 11.8755 5.18054 12.378 5.18001 12.887C5.18001 14.822 6.83501 16.339 8.95501 16.351H8.98501C11.502 16.319 13.322 14.467 13.322 11.936C13.322 9.68905 11.655 7.29605 8.57001 7.29605Z" fill="white"/>
</g>
<defs>
<clipPath id="clip0">
<rect width="38" height="24" fill="white" transform="translate(0 0.895996)"/>
</clipPath>
</defs>
</svg>
