<svg width="20" height="20" viewBox="0 0 20 20" fill="none" xmlns="http://www.w3.org/2000/svg" xmlns:xlink="http://www.w3.org/1999/xlink">
<path d="M20 20L0 20L1.74846e-06 -1.74846e-06L20 0L20 20Z" fill="url(#pattern0)"/>
<defs>
<pattern id="pattern0" patternContentUnits="objectBoundingBox" width="1" height="1">
<use xlink:href="#image0" transform="scale(0.05)"/>
</pattern>
<image id="image0" width="20" height="20" xlink:href="data:image/png;base64,iVBORw0KGgoAAAANSUhEUgAAABQAAAAUCAYAAACNiR0NAAAAQElEQVQ4jWNgIBMkJyf/J1cvVsOoZmBycvL/pKSkf4PTsMHrzcHrssHpTZoYCDOUal6muaFDx/tDx6VDx/vYxAFoNlHJQ7yCLAAAAABJRU5ErkJggg=="/>
</defs>
</svg>
