<svg width="26" height="24" viewBox="0 0 26 24" fill="none" xmlns="http://www.w3.org/2000/svg">
<path d="M23.814 3.14424C22.572 1.71993 20.8489 0.935547 18.9623 0.935547C16.309 0.935547 14.6291 2.53711 13.6871 3.8807C13.4427 4.22935 13.2348 4.57894 13.0603 4.9079C12.8857 4.57894 12.6779 4.22935 12.4334 3.8807C11.4915 2.53711 9.81159 0.935547 7.15822 0.935547C5.27164 0.935547 3.54858 1.71998 2.3065 3.14429C1.12176 4.50299 0.469238 6.32267 0.469238 8.26811C0.469238 10.3858 1.28731 12.3554 3.04376 14.4666C4.61356 16.3535 6.87193 18.2984 9.48707 20.5506C10.4616 21.3899 11.4693 22.2578 12.5421 23.2064L12.5743 23.235C12.7134 23.358 12.8869 23.4195 13.0603 23.4195C13.2337 23.4195 13.4071 23.358 13.5462 23.235L13.5784 23.2064C14.6513 22.2578 15.659 21.3899 16.6336 20.5505C19.2486 18.2985 21.507 16.3535 23.0768 14.4666C24.8332 12.3554 25.6513 10.3858 25.6513 8.26811C25.6513 6.32267 24.9988 4.50299 23.814 3.14424ZM15.6765 19.4156C14.8364 20.1391 13.9719 20.8836 13.0603 21.6846C12.1487 20.8837 11.2841 20.1391 10.4439 19.4155C5.32589 15.0078 1.94475 12.0959 1.94475 8.26811C1.94475 6.68593 2.46634 5.21639 3.41347 4.13023C4.37147 3.03175 5.70135 2.42676 7.15822 2.42676C9.1811 2.42676 10.4887 3.68625 11.2295 4.74282C11.8939 5.69044 12.2406 6.64572 12.3588 7.01241C12.4577 7.31935 12.7409 7.52708 13.0603 7.52708C13.3797 7.52708 13.6628 7.31935 13.7617 7.01241C13.88 6.64572 14.2267 5.69044 14.8911 4.74278C15.6318 3.68625 16.9394 2.42676 18.9623 2.42676C20.4192 2.42676 21.7491 3.03175 22.707 4.13023C23.6542 5.21639 24.1758 6.68593 24.1758 8.26811C24.1758 12.0959 20.7947 15.0078 15.6765 19.4156Z" fill="#061D87"/>
</svg>
