<svg width="24" height="24" viewBox="0 0 24 24" fill="none" xmlns="http://www.w3.org/2000/svg">
<path d="M16.6667 15.0065H15.6133L15.24 14.6465C16.5467 13.1265 17.3333 11.1532 17.3333 9.00651C17.3333 4.21984 13.4533 0.339844 8.66667 0.339844C3.88 0.339844 0 4.21984 0 9.00651C0 13.7932 3.88 17.6732 8.66667 17.6732C10.8133 17.6732 12.7867 16.8865 14.3067 15.5798L14.6667 15.9532V17.0065L21.3333 23.6598L23.32 21.6732L16.6667 15.0065ZM8.66667 15.0065C5.34667 15.0065 2.66667 12.3265 2.66667 9.00651C2.66667 5.68651 5.34667 3.00651 8.66667 3.00651C11.9867 3.00651 14.6667 5.68651 14.6667 9.00651C14.6667 12.3265 11.9867 15.0065 8.66667 15.0065Z" fill="#061D87"/>
</svg>
