<svg width="200" height="200" viewBox="0 0 200 200" fill="none" xmlns="http://www.w3.org/2000/svg">
<path d="M198.115 165.55C197.032 164.307 171.165 135.593 141.167 135.593C139.122 135.593 137.157 135.673 135.232 135.793C155.966 114.498 154 76.3986 153.92 74.7945L153.76 71.9471L150.912 71.7866C149.469 71.7064 117.987 70.0622 96.2502 85.2617C96.2502 84.9408 96.2904 84.62 96.2904 84.2992C96.2503 31.7626 51.7345 2.56668 49.8496 1.36355L48.1251 0.240631L46.4006 1.36355C44.5157 2.56668 0 31.7626 0 84.2591C0 117.746 18.6084 131.783 31.4417 137.477C26.1079 159.094 19.2902 176.459 12.4323 183.317C10.6276 185.121 9.62502 187.568 9.62502 190.134C9.62502 192.701 10.6276 195.107 12.4323 196.952C14.237 198.797 16.6834 199.759 19.25 199.759C21.8167 199.759 24.223 198.757 26.0678 196.952C30.9204 192.099 35.4121 184.48 39.4626 174.975C45.2376 172.248 51.4538 168.558 57.8705 164.187C69.8215 167.195 81.2513 169.962 96.531 171.526C97.8143 181.352 105.073 199.759 141.167 199.759C171.125 199.759 197.032 171.045 198.115 169.801L200 167.676L198.115 165.55ZM147.423 78.1231H147.544C147.544 87.307 146.22 115.741 130.259 131.702C113.936 148.025 97.694 151.795 86.3445 142.089C91.1169 138.039 95.8091 133.868 100.421 129.697L117.666 135.432L119.711 129.336L105.875 124.724C108.683 122.158 111.41 119.591 114.057 117.104L130.539 122.599L132.585 116.503L119.35 112.091C125.446 106.236 131.021 100.782 135.713 96.17L131.221 91.5982C126.97 95.769 121.997 100.622 116.623 105.835L118.709 91.157L112.372 90.2346L109.124 112.974C106.677 115.3 104.151 117.626 101.584 119.992L99.4586 109.284L93.1622 110.527L96.0497 125.045C91.4778 129.176 86.8257 133.266 82.1335 137.277C80.3289 134.63 79.1658 131.743 78.6846 128.655C86.9862 121.155 93.7638 109.926 95.7289 93.844C111.771 79.4466 138.4 78.1231 147.423 78.1231ZM6.41668 84.2591C6.41668 41.0267 40.0241 13.8761 48.1251 7.98075C56.2262 13.8761 89.8336 41.0267 89.8336 84.2591C89.8336 123.762 62.1616 132.986 51.7345 135.031C53.459 127.371 54.983 119.431 56.2262 111.37C62.3621 101.103 81.532 90.3549 81.7325 90.2747L78.6044 84.6601C77.9627 85.0211 66.533 91.4377 57.9106 99.5789C58.6725 93.6034 59.3142 87.6278 59.7955 81.7325C67.0543 73.3106 78.8049 64.4877 78.8851 64.4075L75.0351 59.2741C74.634 59.5949 67.3351 65.0892 60.4371 71.7465C60.758 66.1319 60.9184 60.6778 60.9184 55.4241C60.9184 51.2132 58.1913 47.684 54.4616 46.3605C54.1007 34.2491 51.3335 23.06 51.2132 22.5386L44.997 24.1027C45.0371 24.223 47.684 35.011 48.0449 46.4006C44.3553 47.7241 41.6683 51.2533 41.6683 55.4241C41.6683 55.9856 41.6683 56.5871 41.6683 57.1887C34.8506 51.0126 27.712 46.521 27.3511 46.2803L23.9422 51.7345C24.0626 51.8147 34.2892 58.2715 41.4678 65.9715C41.147 74.2731 40.4652 82.8554 39.5027 91.3976C31.161 84.0987 21.2553 78.5643 20.774 78.2835L17.6459 83.8981C17.7662 83.9783 30.4391 91.0768 38.5402 99.2982C37.0563 110.287 35.1313 121.115 32.8855 131.181C20.0922 125.085 6.41668 112.172 6.41668 84.2591ZM21.536 192.42C20.2928 193.664 18.2474 193.664 17.0042 192.42C16.4026 191.819 16.0818 191.017 16.0818 190.134C16.0818 189.252 16.4026 188.49 17.0042 187.848C33.2865 171.566 48.1251 108.402 48.1251 55.384C48.1251 53.6194 49.5689 52.1757 51.3335 52.1757C53.0981 52.1757 54.5418 53.6194 54.5418 55.384C54.5418 116.663 37.1366 176.78 21.536 192.42ZM50.1303 141.809C56.7074 141.047 65.1293 138.44 72.9898 133.106C73.8721 136.074 75.2757 138.881 77.1205 141.488C65.37 151.233 53.5793 159.936 42.9918 165.911C45.6387 158.532 48.0048 150.431 50.1303 141.809ZM81.4117 146.26C84.5799 149.148 90.8362 153.439 99.6591 153.84C97.8143 157.249 96.6914 161.019 96.3706 165.069C84.0987 163.786 74.3533 161.7 64.7684 159.334C70.2627 155.284 75.8372 150.872 81.4117 146.26ZM141.167 193.343C119.35 193.343 105.554 185.482 103.108 172.087C109.445 172.529 116.423 172.809 124.283 172.809C129.336 172.809 134.79 172.689 140.686 172.488C147.383 176.138 150.993 184.841 150.993 184.921L156.928 182.515C156.808 182.194 154.602 176.82 150.19 172.007C155.484 171.726 161.059 171.325 167.034 170.844L166.513 164.428C163.104 164.708 159.816 164.949 156.647 165.149C161.059 159.414 163.264 152.998 163.385 152.597L157.289 150.551C156.286 153.599 152.476 161.981 146.862 165.711C140.846 166.032 135.232 166.192 130.058 166.272C135.111 160.297 137.598 152.998 137.758 152.597L131.662 150.551C130.539 153.88 126.369 162.944 120.233 166.272C113.816 166.192 108.001 165.951 102.707 165.55C103.068 160.738 104.833 156.527 107.88 152.998C113.495 151.714 119.832 148.747 126.81 143.252C131.141 142.45 135.953 142.009 141.167 142.009C163.746 142.009 184.8 161.179 191.257 167.676C184.8 174.173 163.786 193.343 141.167 193.343Z" fill="#DA1A32"/>
</svg>
