<svg width="200" height="200" viewBox="0 0 200 200" fill="none" xmlns="http://www.w3.org/2000/svg">
<path d="M200 100C200 58.6328 173.594 20.5469 134.766 6.17188C123.633 2.07031 111.836 0 100 0C58.3594 0 20 26.8359 5.85938 66.0547C1.95312 76.9141 0 88.4766 0 100C0 141.367 26.4063 179.453 65.2734 193.828C76.3672 197.93 88.2031 200 100 200C141.836 200 180.312 172.93 194.297 133.477C198.086 122.734 200 111.367 200 100ZM166.172 164.102L157.031 153.008C162.891 146.914 167.695 140 171.367 132.344C172.305 130.391 171.484 128.047 169.531 127.148C167.578 126.211 165.234 127.031 164.336 128.984C161.172 135.586 157.07 141.602 152.07 146.914L131.016 121.328V79.9219L169.219 82.4219C170.352 87.1484 170.977 92.0312 171.094 96.9531C171.133 99.1016 172.93 100.82 175.117 100.742C177.266 100.703 178.984 98.9063 178.906 96.7188C178.789 92.0703 178.242 87.4219 177.305 82.9297L190.742 83.7891C191.68 89.0234 192.148 94.4141 192.148 99.9219C192.187 124.883 182.266 147.5 166.172 164.102ZM149.414 177.773L130.977 161.172V133.633L131.328 134.023L148.75 155.195L160.508 169.453C157.031 172.539 153.32 175.313 149.414 177.773ZM111.719 191.445L103.555 128.984C103.281 127.031 101.641 125.586 99.6875 125.586C97.7344 125.586 96.0547 127.031 95.8203 128.984L87.6562 191.328C83.75 190.82 79.9219 190.039 76.1719 189.023V75.7422C76.1719 73.5156 74.2188 71.6797 71.9922 71.8359L11.0547 75.8203C12.0703 72.1094 13.3203 68.4766 14.7656 64.9609L99.6094 48.9844H99.6484C99.6875 48.9844 99.6875 48.9844 99.7266 48.9844L185.234 64.9609C186.68 68.5156 187.93 72.1484 188.945 75.9375L127.344 71.875C125.117 71.7187 123.164 73.5547 123.164 75.7812V189.219C119.453 190.195 115.625 190.938 111.719 191.445ZM37.4609 167.656L50.0781 152.344C50.0781 152.344 50.0781 152.344 50.1172 152.305L68.3594 130.156V158.594L48.5547 176.445C44.6094 173.789 40.8984 170.859 37.4609 167.656ZM32.6172 82.2266L68.3203 79.8828V117.852L66.0547 120.625L46.9531 143.828C36.4062 131.211 30.6641 115.391 30.6641 98.8281C30.6641 93.2031 31.3281 87.6172 32.6172 82.2266ZM68.3203 169.102V186.563C63.8672 184.922 59.5703 182.93 55.4688 180.664L68.3203 169.102ZM30.5859 39.375L42.9297 51.6797L18.8672 56.2109C22.1875 50.1562 26.0938 44.5313 30.5859 39.375ZM45.1953 25.9375L71.4453 46.3672L52.3047 49.9609L35.9766 33.7109C38.8672 30.9375 41.9531 28.3203 45.1953 25.9375ZM181.133 56.25L155.938 51.5625L168.828 38.75C173.555 44.0234 177.695 49.9219 181.133 56.25ZM163.359 33.0859L146.602 49.7656L127.461 46.2109L154.18 25.4297C157.383 27.7734 160.469 30.3516 163.359 33.0859ZM117.188 44.2969L113.672 43.6328C117.656 39.9609 120.195 34.6484 120.195 28.7891V21.7578C120.195 16.9922 118.516 12.5781 115.742 9.14062C127.109 11.0937 137.734 15.1563 147.266 20.8594L117.188 44.2969ZM112.383 28.7891C112.383 35.5859 106.836 41.1328 100.039 41.1719C99.9609 41.1719 99.9219 41.1719 99.8828 41.1719H99.8438C93.125 41.0547 87.6562 35.5469 87.6562 28.7891V21.7578C87.6562 14.9219 93.2031 9.375 100.039 9.375C106.875 9.375 112.422 14.9219 112.422 21.7578V28.7891H112.383ZM86.25 43.5547L81.6797 44.4141L51.9922 21.3281C61.7188 15.3906 72.6172 11.1719 84.2578 9.17969C81.4844 12.6562 79.8047 17.0312 79.8047 21.7969V28.8281C79.8047 34.6094 82.3047 39.8828 86.25 43.5547ZM130.977 171.719L142.305 181.914C138.672 183.789 134.883 185.469 130.977 186.836V171.719ZM9.25781 83.75L24.4922 82.7734C23.3984 88.0469 22.8516 93.3984 22.8516 98.8281C22.8516 117.734 29.6094 135.781 41.9141 149.961L31.9141 162.109C16.9531 145.703 7.8125 123.906 7.8125 100C7.8125 94.4531 8.32031 89.0234 9.25781 83.75ZM95.4297 192.07L99.6875 159.609L103.945 192.109C102.656 192.148 101.328 192.188 100.039 192.188C98.4766 192.188 96.9531 192.148 95.4297 192.07Z" fill="#DA1A32"/>
<path d="M177.031 112.773C176.211 110.82 173.906 109.844 171.914 110.664C169.961 111.484 168.984 113.789 169.805 115.781C170.625 117.773 172.93 118.711 174.922 117.891C176.875 117.07 177.852 114.727 177.031 112.773Z" fill="#DA1A32"/>
</svg>
